{
  "presentation": {
    "fileTTL": "0 1 * * *",
    "httpsPort": 4000,
    "wsPort": 4001,
    "allowedExtensions": [".pdf", ".ppt", ".pptx", ".key"],
    "allowedTypes": [
      "application/pdf",
      "application/vnd.openxmlformats-officedocument.presentationml.presentation",
      "application/vnd.ms-powerpoint"
    ],
    "publicFolder": "../public/",
    "uploadPath": "uploads",
    "downloadPath": "downloads"
  },
  "httpsOptions": {
    "passphrase": "***",
    "key": "***",
    "cert": "***"
  }
}
